<svg width="18" height="18" viewBox="0 0 18 18" fill="none" xmlns="http://www.w3.org/2000/svg">
<g id="&#232;&#175;&#173;&#233;&#159;&#179;&#230;&#157;&#161;-&#229;&#183;&#166; 1">
<path id="Vector" d="M10.9003 16.7672C10.9915 16.8584 11.0998 16.9308 11.219 16.9801C11.3381 17.0295 11.4659 17.0549 11.5948 17.0549C11.7238 17.0549 11.8516 17.0295 11.9707 16.9801C12.0899 16.9308 12.1982 16.8584 12.2893 16.7672L12.4143 16.6382C16.5063 12.3712 16.5013 5.62817 12.4043 1.36617L12.2783 1.23617L12.2683 1.22617C12.1783 1.13569 12.0711 1.06411 11.9531 1.01564C11.835 0.967162 11.7084 0.942767 11.5808 0.943884C11.4532 0.945002 11.3271 0.971611 11.2099 1.02215C11.0927 1.07268 10.9868 1.14613 10.8983 1.23817C10.7307 1.41625 10.6374 1.6516 10.6374 1.89617C10.6374 2.14074 10.7307 2.37609 10.8983 2.55417L10.9013 2.55717L11.0053 2.66317C12.6393 4.35539 13.5525 6.61585 13.5525 8.96817C13.5525 11.3205 12.6393 13.5809 11.0053 15.2732L10.9013 15.3792L10.8893 15.3912C10.7106 15.5764 10.6118 15.8243 10.614 16.0816C10.6163 16.339 10.7194 16.5851 10.9013 16.7672H10.9003ZM7.31335 13.9792C7.49098 14.1373 7.72052 14.2247 7.95835 14.2247C8.19618 14.2247 8.42572 14.1373 8.60335 13.9792L8.61735 13.9672L8.62035 13.9632L8.70035 13.8812C9.93938 12.5607 10.629 10.8179 10.629 9.00717C10.629 7.19642 9.93938 5.45364 8.70035 4.13317L8.61735 4.04617L8.61335 4.04317L8.60235 4.03317C8.42376 3.87824 8.19527 3.79295 7.95885 3.79295C7.72242 3.79295 7.49394 3.87824 7.31535 4.03317L7.29835 4.04817L7.29335 4.05317L7.28335 4.06417C7.12372 4.24382 7.03639 4.47628 7.03823 4.71659C7.04008 4.95691 7.13098 5.188 7.29335 5.36517L7.29835 5.36917L7.35635 5.42917C8.28153 6.39009 8.79847 7.67206 8.79866 9.00597C8.79885 10.3399 8.28226 11.622 7.35735 12.5832L7.29535 12.6472L7.29235 12.6502L7.28235 12.6602C6.95935 13.0342 6.96235 13.5902 7.29235 13.9602L7.29735 13.9642L7.30235 13.9692L7.31335 13.9792ZM3.33135 10.0642C3.54111 10.2702 3.80705 10.4096 4.09579 10.465C4.38454 10.5204 4.6832 10.4892 4.95428 10.3754C5.22537 10.2616 5.45679 10.0702 5.61949 9.82535C5.78219 9.58047 5.86891 9.29298 5.86878 8.99898C5.86864 8.70498 5.78164 8.41757 5.61871 8.17284C5.45578 7.92812 5.22418 7.73698 4.95299 7.62344C4.6818 7.50989 4.38311 7.479 4.09442 7.53464C3.80573 7.59028 3.53991 7.72997 3.33035 7.93617L3.31735 7.94917L3.30435 7.96217C3.03228 8.23943 2.87994 8.61242 2.88013 9.00088C2.88031 9.38933 3.03301 9.76217 3.30535 10.0392L3.31835 10.0512L3.33135 10.0642Z" fill="#05073B"/>
</g>
</svg>
